^C:\USERS\WANDRUS\DESKTOP\TICTACTOE\TICTACTOE\COMPUTERVSCOMPUTERCOUNT.RESX|C:\USERS\WANDRUS\DESKTOP\TICTACTOE\TICTACTOE\CONFIGUREDP.RESX|C:\USERS\WANDRUS\DESKTOP\TICTACTOE\TICTACTOE\CONFIGUREMC.RESX|C:\USERS\WANDRUS\DESKTOP\TICTACTOE\TICTACTOE\CONFIGURETD.RESX|C:\USERS\WANDRUS\DESKTOP\TICTACTOE\TICTACTOE\GRAPH.RESX|C:\USERS\WANDRUS\DESKTOP\TICTACTOE\TICTACTOE\INTERFACE.RESX|C:\USERS\WANDRUS\DESKTOP\TICTACTOE\TICTACTOE\OPENXML.RESX|C:\USERS\WANDRUS\DESKTOP\TICTACTOE\TICTACTOE\STATESEARCH.RESX
C:\USERS\WANDRUS\DESKTOP\TICTACTOE\TICTACTOE\OBJ\DEBUG\TICTACTOE.COMPUTERVSCOMPUTERCOUNT.RESOURCES
C:\USERS\WANDRUS\DESKTOP\TICTACTOE\TICTACTOE\OBJ\DEBUG\TICTACTOE.AGENT.CONFIGUREDP.RESOURCES
C:\USERS\WANDRUS\DESKTOP\TICTACTOE\TICTACTOE\OBJ\DEBUG\TICTACTOE.AGENT.CONFIGUREMC.RESOURCES
C:\USERS\WANDRUS\DESKTOP\TICTACTOE\TICTACTOE\OBJ\DEBUG\TICTACTOE.AGENT.CONFIGURETD.RESOURCES
C:\USERS\WANDRUS\DESKTOP\TICTACTOE\TICTACTOE\OBJ\DEBUG\TICTACTOE.GRAPH.RESOURCES
C:\USERS\WANDRUS\DESKTOP\TICTACTOE\TICTACTOE\OBJ\DEBUG\TICTACTOE.FORM1.RESOURCES
C:\USERS\WANDRUS\DESKTOP\TICTACTOE\TICTACTOE\OBJ\DEBUG\TICTACTOE.OPENXML.RESOURCES
C:\USERS\WANDRUS\DESKTOP\TICTACTOE\TICTACTOE\OBJ\DEBUG\TICTACTOE.STATESEARCH.RESOURCES
